[
  {
    "title": "Ceinture",
    "presentationImage": "http://www.bootply.com/assets/example/ec_belt.jpg"
  },
  {
    "title": "Jacket",
    "presentationImage": "http://www.bootply.com/assets/example/ec_jacket.jpg"
  },
  {
    "title": "Jeans",
    "presentationImage": "http://www.bootply.com/assets/example/ec_jeans.jpg"
  },
  {
    "title": "Chaussettes",
    "presentationImage": "http://www.bootply.com/assets/example/ec_socks.jpg"
  },
  {
    "title": "Pull",
    "presentationImage": "http://www.bootply.com/assets/example/ec_sweater.jpg"
  }
]